<?xml version="1.0" encoding="utf-8"?>
<!-- Generator: Adobe Illustrator 21.1.0, SVG Export Plug-In . SVG Version: 6.00 Build 0)  -->
<svg version="1.1" id="Layer_1" xmlns="http://www.w3.org/2000/svg" xmlns:xlink="http://www.w3.org/1999/xlink" x="0px" y="0px"
	 viewBox="0 0 38 38" style="enable-background:new 0 0 38 38;" xml:space="preserve">
<style type="text/css">
	.st0{fill:#FFFFFF;}
</style>
<title>7Artboard 29 copy 3</title>
<path class="st0" d="M20.3,9.9V7.8L24,4.1c0.5,0.2,1.1,0.4,1.6,0.6L20.3,9.9z M29.5,7.4l-9.2,9.2v1.1h1.1l9.1-9.2
	C30.3,8.1,29.9,7.8,29.5,7.4L29.5,7.4z M20.3,5.5l1.9-1.8c-0.6-0.1-1.2-0.2-1.9-0.3V5.5z M34.3,15.9l-1.8,1.8h2.1
	C34.5,17.1,34.4,16.5,34.3,15.9L34.3,15.9z M33.8,14.1c-0.2-0.5-0.4-1.1-0.6-1.6l-5.1,5.2h2.2L33.8,14.1z M32.5,11.1
	c-0.3-0.4-0.6-0.9-0.9-1.3l-7.9,8h2.2L32.5,11.1z M28.3,6.4c-0.4-0.3-0.9-0.6-1.3-0.9l-6.7,6.6v2.2L28.3,6.4z M17.7,20.3V3.4
	c-8.6,0.7-15,8.3-14.2,16.9s8.3,15,16.9,14.2c7.6-0.6,13.6-6.7,14.2-14.2H17.7z"/>
</svg>
