<?xml version="1.0" encoding="utf-8"?>
<!-- Generator: Adobe Illustrator 21.1.0, SVG Export Plug-In . SVG Version: 6.00 Build 0)  -->
<svg version="1.1" id="Layer_1" xmlns="http://www.w3.org/2000/svg" xmlns:xlink="http://www.w3.org/1999/xlink" x="0px" y="0px"
	 viewBox="0 0 38 38" style="enable-background:new 0 0 38 38;" xml:space="preserve">
<style type="text/css">
	.st0{fill:#FFFFFF;}
</style>
<title>7Artboard 29</title>
<path class="st0" d="M6.7,2.6v32.8h24.6V2.6H6.7z M14.9,32.7H9.4v-4.1h5.5V32.7z M14.9,27.2H9.4v-4.1h5.5V27.2z M14.9,21.7H9.4v-4.1
	h5.5V21.7z M21.7,32.7h-5.5v-4.1h5.5L21.7,32.7z M21.7,27.2h-5.5v-4.1h5.5L21.7,27.2z M21.7,21.7h-5.5v-4.1h5.5L21.7,21.7z
	 M28.6,32.7h-5.5v-9.6h5.5L28.6,32.7z M28.6,21.7h-5.5v-4.1h5.5L28.6,21.7z M28.6,13.5H9.4V5.3h19.1L28.6,13.5z M27.2,12.2H10.8V6.7
	h16.4V12.2z"/>
</svg>
